module gitlab.com/different-tests/golang-sql-unit-testing

go 1.22.2

require (
	github.com/DATA-DOG/go-sqlmock v1.5.2
	github.com/go-sql-driver/mysql v1.8.1
)

require filippo.io/edwards25519 v1.1.0 // indirect
